labs/lab7/tb_hardware_comparator.vcd
$date
	Wed Jun  4 14:54:00 2025
$end
$version
	Icarus Verilog
$end
$timescale
	1ps
$end
$scope module tb_hardware_comparator $end
$var wire 1 ! WrongPassword $end
$var wire 1 " ValidPassword $end
$var wire 1 # StoreSuccess $end
$var parameter 32 $ BIT10 $end
$var parameter 32 % BIT12 $end
$var parameter 1 & COMPARE_MODE $end
$var parameter 32 ' HWC_INDEX_PSW_LENGTH $end
$var parameter 32 ( HWC_MEMORY_SIZE $end
$var parameter 32 ) HWC_PASSWORD_LENGTH $end
$var parameter 32 * HWC_SEL_WIDTH $end
$var parameter 32 + HWC_WIDTH $end
$var parameter 1 , STORE_MODE $end
$var reg 1 - Clock $end
$var reg 8 . DataIn [7:0] $end
$var reg 16 / DataLength [15:0] $end
$var reg 1 0 FunctionMode $end
$var reg 1 1 Reset $end
$var reg 8 2 SelectAddress [7:0] $end
$var reg 1 3 Start $end
$var integer 32 4 i [31:0] $end
$upscope $end
$enddefinitions $end
$comment Show the parameter values. $end
$dumpall
1,
b1000 +
b1000 *
b10000 )
b100000000 (
b100 '
0&
b1100 %
b1010 $
$end
#0
$dumpvars
bx 4
03
b0 2
11
00
b0 /
b0 .
0-
0#
0"
0!
$end
#5000
1-
#10000
0-
#15000
1-
01
#20000
0-
#25000
13
1-
b1010 /
10
#30000
0-
#35000
b1010000 .
b0 4
03
1-
#40000
0-
#45000
b1000001 .
b1 4
1-
#50000
0-
#55000
b1010011 .
b10 4
1-
#60000
0-
#65000
b11 4
1-
#70000
0-
#75000
b1010111 .
b100 4
1-
#80000
0-
#85000
b1001111 .
b101 4
1-
#90000
0-
#95000
b1010010 .
b110 4
1-
#100000
0-
#105000
b1000100 .
b111 4
1-
#110000
0-
#115000
b110001 .
b1000 4
1-
#120000
0-
#125000
b110000 .
b1001 4
1-
#130000
0-
#135000
1#
b0 .
b1010 4
1-
#140000
0-
#145000
0#
13
1-
00
#150000
0-
#155000
b1010000 .
b0 4
03
1-
#160000
0-
#165000
b1000001 .
b1 4
1-
#170000
0-
#175000
b1010011 .
b10 4
1-
#180000
0-
#185000
b11 4
1-
#190000
0-
#195000
b1010111 .
b100 4
1-
#200000
0-
#205000
b1001111 .
b101 4
1-
#210000
0-
#215000
b1010010 .
b110 4
1-
#220000
0-
#225000
b1000100 .
b111 4
1-
#230000
0-
#235000
b110001 .
b1000 4
1-
#240000
0-
#245000
b110000 .
b1001 4
1-
#250000
0-
#255000
b0 .
b1010 4
1-
#260000
0-
#265000
1-
#270000
0-
#275000
1-
#280000
0-
#285000
1-
#290000
0-
#295000
1-
#300000
0-
#305000
1-
#310000
0-
#315000
1-
#320000
0-
#325000
1"
1-
#330000
0-
#335000
1-
#340000
0-
#345000
1-
#350000
0-
#355000
0"
13
1-
#360000
0-
#365000
b1010000 .
b0 4
03
1-
#370000
0-
#375000
b1000001 .
b1 4
1-
#380000
0-
#385000
b1010011 .
b10 4
1-
#390000
0-
#395000
b110000 .
b11 4
1-
#400000
0-
#405000
b1010111 .
b100 4
1-
#410000
0-
#415000
b1001111 .
b101 4
1-
#420000
0-
#425000
b1010011 .
b110 4
1-
#430000
0-
#435000
b1000100 .
b111 4
1-
#440000
0-
#445000
b1010010 .
b1000 4
1-
#450000
0-
#455000
b110000 .
b1001 4
1-
#460000
0-
#465000
b0 .
b1010 4
1-
#470000
0-
#475000
b1011 4
1-
#480000
0-
#485000
b1100 4
1-
#490000
0-
#495000
1-
#500000
0-
#505000
1-
#510000
0-
#515000
1-
#520000
0-
#525000
1-
#530000
0-
#535000
1!
1-
#540000
0-
#545000
1-
#550000
0-
#555000
1-
#560000
0-
#565000
1-
#570000
0-
#575000
1-
#580000
0-
#585000
0!
13
1-
#590000
0-
#595000
b1000001 .
b1 4
03
1-
#600000
0-
#605000
b1010011 .
b10 4
1-
#610000
0-
#615000
b110000 .
b11 4
1-
#620000
0-
#625000
b1010111 .
b100 4
1-
#630000
0-
#635000
b1001111 .
b101 4
1-
#640000
0-
#645000
b1010011 .
b110 4
1-
#650000
0-
#655000
b1000100 .
b111 4
1-
#660000
0-
#665000
b1010010 .
b1000 4
1-
#670000
0-
#675000
b110000 .
b1001 4
1-
#680000
0-
#685000
b1010 4
1-
#690000
0-
#695000
1-
#700000
0-
#705000
1-
#710000
0-
#715000
1-
#720000
0-
#725000
1-
#730000
0-
#735000
1-
#740000
0-
#745000
1-
#750000
0-
#755000
1-
#760000
0-
#765000
1!
1-
