labs/lab7/tb_timing_attack.vcd
$date
	Wed Jun  4 15:06:15 2025
$end
$version
	Icarus Verilog
$end
$timescale
	1ps
$end
$scope module tb_timing_attack $end
$var wire 1 ! WrongPassword $end
$var wire 1 " ValidPassword $end
$var wire 1 # StoreSuccess $end
$var parameter 32 $ BIT10 $end
$var parameter 32 % BIT12 $end
$var parameter 1 & COMPARE_MODE $end
$var parameter 32 ' HWC_INDEX_PSW_LENGTH $end
$var parameter 32 ( HWC_MEMORY_SIZE $end
$var parameter 32 ) HWC_PASSWORD_LENGTH $end
$var parameter 32 * HWC_SEL_WIDTH $end
$var parameter 32 + HWC_WIDTH $end
$var parameter 1 , STORE_MODE $end
$var reg 1 - Clock $end
$var reg 8 . DataIn [7:0] $end
$var reg 16 / DataLength [15:0] $end
$var reg 1 0 FunctionMode $end
$var reg 1 1 Reset $end
$var reg 8 2 SelectAddress [7:0] $end
$var reg 1 3 Start $end
$var integer 32 4 i [31:0] $end
$var integer 32 5 j [31:0] $end
$var integer 32 6 pos [31:0] $end
$scope module hwc $end
$var wire 1 - Clock $end
$var wire 8 7 DataIn [7:0] $end
$var wire 16 8 DataLength [15:0] $end
$var wire 1 0 FunctionMode $end
$var wire 1 1 Reset $end
$var wire 8 9 SelectAddress [7:0] $end
$var wire 1 3 Start $end
$var wire 1 " ValidPassword $end
$var wire 1 ! WrongPassword $end
$var wire 1 : wireWrongPassword $end
$var wire 8 ; wireNextAddress [7:0] $end
$var wire 1 < wireEqualFlag $end
$var parameter 1 = COMPARE_MODE $end
$var parameter 1 > FAILURE $end
$var parameter 32 ? HWC_INDEX_PSW_LENGTH $end
$var parameter 32 @ HWC_MEMORY_SIZE $end
$var parameter 32 A HWC_PASSWORD_LENGTH $end
$var parameter 32 B HWC_SEL_WIDTH $end
$var parameter 32 C HWC_WIDTH $end
$var parameter 1 D STORE_MODE $end
$var parameter 1 E SUCCESS $end
$var reg 8 F MemReadData [7:0] $end
$var reg 8 G RegCurrentAddress [7:0] $end
$var reg 4 H RegIndexPassword [3:0] $end
$var reg 1 I RegValidPassword $end
$var reg 1 J RegWrongPassword $end
$var reg 1 # StoreSuccess $end
$upscope $end
$upscope $end
$enddefinitions $end
$comment Show the parameter values. $end
$dumpall
1E
1D
b1000 C
b1000 B
b10000 A
b100000000 @
b100 ?
0>
0=
1,
b1000 +
b1000 *
b10000 )
b100000000 (
b100 '
0&
b1100 %
b1010 $
$end
#0
$dumpvars
xJ
xI
bx H
bx G
bx F
x<
bx ;
x:
bx 9
bx 8
bx 7
bx 6
bx 5
bx 4
x3
bx 2
01
x0
bx /
bx .
0-
x#
x"
x!
$end
#5000
1!
1J
1-
#10000
0:
1<
0!
0J
0"
0I
b0 F
0#
b1 ;
b0 G
b0 H
0-
b0 /
b0 8
b0 .
b0 7
b0 2
b0 9
00
03
11
#15000
x:
x<
1"
1I
bx F
01
1-
#20000
0-
#25000
x"
xI
x!
xJ
1-
#30000
0-
#35000
0!
0J
0"
0I
b110011 ;
b110010 G
0:
13
b0 4
b0 6
b1010 /
b1010 8
b110010 2
b110010 9
1-
#40000
0-
#45000
0<
b1 H
b110100 ;
b110011 G
b1001000 F
1:
b1000001 .
b1000001 7
03
1-
#50000
0-
#55000
b10 H
b110101 ;
b110100 G
1!
1J
b1000101 F
1-
#60000
0-
#65000
0!
0J
b110011 ;
b110010 G
b0 H
0:
13
b1 4
1-
#70000
0-
#75000
b1 H
b110100 ;
b110011 G
b1001000 F
1:
b1000010 .
b1000010 7
03
1-
#80000
0-
#85000
b10 H
b110101 ;
b110100 G
1!
1J
b1000101 F
1-
#90000
0-
#95000
0!
0J
b110011 ;
b110010 G
b0 H
0:
13
b10 4
1-
#100000
0-
#105000
b1 H
b110100 ;
b110011 G
b1001000 F
1:
b1000011 .
b1000011 7
03
1-
#110000
0-
#115000
b10 H
b110101 ;
b110100 G
1!
1J
b1000101 F
1-
#120000
0-
#125000
0!
0J
b110011 ;
b110010 G
b0 H
0:
13
b11 4
1-
#130000
0-
#135000
b1 H
b110100 ;
b110011 G
b1001000 F
1:
b1000100 .
b1000100 7
03
1-
#140000
0-
#145000
b10 H
b110101 ;
b110100 G
1!
1J
b1000101 F
1-
#150000
0-
#155000
0!
0J
b110011 ;
b110010 G
b0 H
0:
13
b100 4
1-
#160000
0-
#165000
b1 H
b110100 ;
b110011 G
b1001000 F
1:
0<
b1000101 .
b1000101 7
03
1-
#170000
0-
#175000
0:
1<
b10 H
b110101 ;
b110100 G
1!
1J
b1000101 F
1-
#180000
0-
#185000
0!
0J
b110011 ;
b110010 G
b0 H
13
b101 4
1-
#190000
0-
#195000
b1 H
b110100 ;
b110011 G
b1001000 F
1:
0<
b1000110 .
b1000110 7
03
1-
#200000
0-
#205000
b10 H
b110101 ;
b110100 G
1!
1J
b1000101 F
1-
#210000
0-
#215000
0!
0J
b110011 ;
b110010 G
b0 H
0:
13
b110 4
1-
#220000
0-
#225000
b1 H
b110100 ;
b110011 G
b1001000 F
1:
b1000111 .
b1000111 7
03
1-
#230000
0-
#235000
b10 H
b110101 ;
b110100 G
1!
1J
b1000101 F
1-
#240000
0-
#245000
0!
0J
b110011 ;
b110010 G
b0 H
0:
13
b111 4
1-
#250000
0-
#255000
1<
b1 H
b110100 ;
b110011 G
b1001000 F
0:
b1001000 .
b1001000 7
03
1-
#260000
0-
#265000
1:
0<
b10 H
b110101 ;
b110100 G
b1000101 F
1-
#270000
0-
#275000
b110011 ;
b110010 G
b0 H
0:
13
b1 6
b0 4
1-
#280000
0-
#285000
1<
b1 H
b110100 ;
b110011 G
b1001000 F
0:
b0 5
03
1-
#290000
0-
#295000
b10 H
b110101 ;
b110100 G
b1000101 F
1:
0<
b1000001 .
b1000001 7
b1 5
1-
#300000
0-
#305000
b11 H
b110110 ;
b110101 G
1!
1J
b1001100 F
1-
#310000
0-
#315000
0!
0J
b110011 ;
b110010 G
b0 H
0:
13
b1 4
1-
#320000
0-
#325000
1<
b1 H
b110100 ;
b110011 G
b1001000 F
0:
b1001000 .
b1001000 7
b0 5
03
1-
#330000
0-
#335000
b10 H
b110101 ;
b110100 G
b1000101 F
1:
0<
b1000010 .
b1000010 7
b1 5
1-
#340000
0-
#345000
b11 H
b110110 ;
b110101 G
1!
1J
b1001100 F
1-
#350000
0-
#355000
0!
0J
b110011 ;
b110010 G
b0 H
0:
13
b10 4
1-
#360000
0-
#365000
1<
b1 H
b110100 ;
b110011 G
b1001000 F
0:
b1001000 .
b1001000 7
b0 5
03
1-
#370000
0-
#375000
b10 H
b110101 ;
b110100 G
b1000101 F
1:
0<
b1000011 .
b1000011 7
b1 5
1-
#380000
0-
#385000
b11 H
b110110 ;
b110101 G
1!
1J
b1001100 F
1-
#390000
0-
#395000
0!
0J
b110011 ;
b110010 G
b0 H
0:
13
b11 4
1-
#400000
0-
#405000
1<
b1 H
b110100 ;
b110011 G
b1001000 F
0:
b1001000 .
b1001000 7
b0 5
03
1-
#410000
0-
#415000
b10 H
b110101 ;
b110100 G
b1000101 F
1:
0<
b1000100 .
b1000100 7
b1 5
1-
#420000
0-
#425000
b11 H
b110110 ;
b110101 G
1!
1J
b1001100 F
1-
#430000
0-
#435000
0!
0J
b110011 ;
b110010 G
b0 H
0:
13
b100 4
1-
#440000
0-
#445000
1<
b1 H
b110100 ;
b110011 G
b1001000 F
0:
b1001000 .
b1001000 7
b0 5
03
1-
#450000
0-
#455000
b10 H
b110101 ;
b110100 G
b1000101 F
0:
1<
b1000101 .
b1000101 7
b1 5
1-
#460000
0-
#465000
1:
0<
b11 H
b110110 ;
b110101 G
b1001100 F
1-
#470000
0-
#475000
b110011 ;
b110010 G
b0 H
0:
13
b10 6
b0 4
1-
#480000
0-
#485000
1<
b1 H
b110100 ;
b110011 G
b1001000 F
0:
b1001000 .
b1001000 7
b0 5
03
1-
#490000
0-
#495000
b10 H
b110101 ;
b110100 G
b1000101 F
0:
1<
b1000101 .
b1000101 7
b1 5
1-
#500000
0-
#505000
b11 H
b110110 ;
b110101 G
b1001100 F
1:
0<
b1000001 .
b1000001 7
b10 5
1-
#510000
0-
#515000
b100 H
b110111 ;
b110110 G
1!
1J
1-
#520000
0-
#525000
0!
0J
b110011 ;
b110010 G
b0 H
0:
13
b1 4
1-
#530000
0-
#535000
1<
b1 H
b110100 ;
b110011 G
b1001000 F
0:
b1001000 .
b1001000 7
b0 5
03
1-
#540000
0-
#545000
b10 H
b110101 ;
b110100 G
b1000101 F
0:
1<
b1000101 .
b1000101 7
b1 5
1-
#550000
0-
#555000
b11 H
b110110 ;
b110101 G
b1001100 F
1:
0<
b1000010 .
b1000010 7
b10 5
1-
#560000
0-
#565000
b100 H
b110111 ;
b110110 G
1!
1J
1-
#570000
0-
#575000
0!
0J
b110011 ;
b110010 G
b0 H
0:
13
b10 4
1-
#580000
0-
#585000
1<
b1 H
b110100 ;
b110011 G
b1001000 F
0:
b1001000 .
b1001000 7
b0 5
03
1-
#590000
0-
#595000
b10 H
b110101 ;
b110100 G
b1000101 F
0:
1<
b1000101 .
b1000101 7
b1 5
1-
#600000
0-
#605000
b11 H
b110110 ;
b110101 G
b1001100 F
1:
0<
b1000011 .
b1000011 7
b10 5
1-
#610000
0-
#615000
b100 H
b110111 ;
b110110 G
1!
1J
1-
#620000
0-
#625000
0!
0J
b110011 ;
b110010 G
b0 H
0:
13
b11 4
1-
#630000
0-
#635000
1<
b1 H
b110100 ;
b110011 G
b1001000 F
0:
b1001000 .
b1001000 7
b0 5
03
1-
#640000
0-
#645000
b10 H
b110101 ;
b110100 G
b1000101 F
0:
1<
b1000101 .
b1000101 7
b1 5
1-
#650000
0-
#655000
b11 H
b110110 ;
b110101 G
b1001100 F
1:
0<
b1000100 .
b1000100 7
b10 5
1-
#660000
0-
#665000
b100 H
b110111 ;
b110110 G
1!
1J
1-
#670000
0-
#675000
0!
0J
b110011 ;
b110010 G
b0 H
0:
13
b100 4
1-
#680000
0-
#685000
1<
b1 H
b110100 ;
b110011 G
b1001000 F
0:
b1001000 .
b1001000 7
b0 5
03
1-
#690000
0-
#695000
b10 H
b110101 ;
b110100 G
b1000101 F
0:
1<
b1000101 .
b1000101 7
b1 5
1-
#700000
0-
#705000
1:
0<
b11 H
b110110 ;
b110101 G
b1001100 F
b10 5
1-
#710000
0-
#715000
b100 H
b110111 ;
b110110 G
1!
1J
1-
#720000
0-
#725000
0!
0J
b110011 ;
b110010 G
b0 H
0:
13
b101 4
1-
#730000
0-
#735000
1<
b1 H
b110100 ;
b110011 G
b1001000 F
0:
b1001000 .
b1001000 7
b0 5
03
1-
#740000
0-
#745000
b10 H
b110101 ;
b110100 G
b1000101 F
0:
1<
b1000101 .
b1000101 7
b1 5
1-
#750000
0-
#755000
b11 H
b110110 ;
b110101 G
b1001100 F
1:
0<
b1000110 .
b1000110 7
b10 5
1-
#760000
0-
#765000
b100 H
b110111 ;
b110110 G
1!
1J
1-
#770000
0-
#775000
0!
0J
b110011 ;
b110010 G
b0 H
0:
13
b110 4
1-
#780000
0-
#785000
1<
b1 H
b110100 ;
b110011 G
b1001000 F
0:
b1001000 .
b1001000 7
b0 5
03
1-
#790000
0-
#795000
b10 H
b110101 ;
b110100 G
b1000101 F
0:
1<
b1000101 .
b1000101 7
b1 5
1-
#800000
0-
#805000
b11 H
b110110 ;
b110101 G
b1001100 F
1:
0<
b1000111 .
b1000111 7
b10 5
1-
#810000
0-
#815000
b100 H
b110111 ;
b110110 G
1!
1J
1-
#820000
0-
#825000
0!
0J
b110011 ;
b110010 G
b0 H
0:
13
b111 4
1-
#830000
0-
#835000
1<
b1 H
b110100 ;
b110011 G
b1001000 F
0:
b1001000 .
b1001000 7
b0 5
03
1-
#840000
0-
#845000
b10 H
b110101 ;
b110100 G
b1000101 F
0:
1<
b1000101 .
b1000101 7
b1 5
1-
#850000
0-
#855000
b11 H
b110110 ;
b110101 G
b1001100 F
1:
0<
b1001000 .
b1001000 7
b10 5
1-
#860000
0-
#865000
b100 H
b110111 ;
b110110 G
1!
1J
1-
#870000
0-
#875000
0!
0J
b110011 ;
b110010 G
b0 H
0:
13
b1000 4
1-
#880000
0-
#885000
1<
b1 H
b110100 ;
b110011 G
b1001000 F
0:
b0 5
03
1-
#890000
0-
#895000
b10 H
b110101 ;
b110100 G
b1000101 F
0:
1<
b1000101 .
b1000101 7
b1 5
1-
#900000
0-
#905000
b11 H
b110110 ;
b110101 G
b1001100 F
1:
0<
b1001001 .
b1001001 7
b10 5
1-
#910000
0-
#915000
b100 H
b110111 ;
b110110 G
1!
1J
1-
#920000
0-
#925000
0!
0J
b110011 ;
b110010 G
b0 H
0:
13
b1001 4
1-
#930000
0-
#935000
1<
b1 H
b110100 ;
b110011 G
b1001000 F
0:
b1001000 .
b1001000 7
b0 5
03
1-
#940000
0-
#945000
b10 H
b110101 ;
b110100 G
b1000101 F
0:
1<
b1000101 .
b1000101 7
b1 5
1-
#950000
0-
#955000
b11 H
b110110 ;
b110101 G
b1001100 F
1:
0<
b1001010 .
b1001010 7
b10 5
1-
#960000
0-
#965000
b100 H
b110111 ;
b110110 G
1!
1J
1-
#970000
0-
#975000
0!
0J
b110011 ;
b110010 G
b0 H
0:
13
b1010 4
1-
#980000
0-
#985000
1<
b1 H
b110100 ;
b110011 G
b1001000 F
0:
b1001000 .
b1001000 7
b0 5
03
1-
#990000
0-
#995000
b10 H
b110101 ;
b110100 G
b1000101 F
0:
1<
b1000101 .
b1000101 7
b1 5
1-
#1000000
0-
#1005000
b11 H
b110110 ;
b110101 G
b1001100 F
1:
0<
b1001011 .
b1001011 7
b10 5
1-
#1010000
0-
#1015000
b100 H
b110111 ;
b110110 G
1!
1J
1-
#1020000
0-
#1025000
0!
0J
b110011 ;
b110010 G
b0 H
0:
13
b1011 4
1-
#1030000
0-
#1035000
1<
b1 H
b110100 ;
b110011 G
b1001000 F
0:
b1001000 .
b1001000 7
b0 5
03
1-
#1040000
0-
#1045000
b10 H
b110101 ;
b110100 G
b1000101 F
0:
1<
b1000101 .
b1000101 7
b1 5
1-
#1050000
0-
#1055000
b11 H
b110110 ;
b110101 G
b1001100 F
0:
1<
b1001100 .
b1001100 7
b10 5
1-
#1060000
0-
#1065000
b100 H
b110111 ;
b110110 G
1-
#1070000
0-
#1075000
b110011 ;
b110010 G
b0 H
13
b11 6
b0 4
1-
#1080000
0-
#1085000
b1 H
b110100 ;
b110011 G
b1001000 F
0:
1<
b1001000 .
b1001000 7
b0 5
03
1-
#1090000
0-
#1095000
b10 H
b110101 ;
b110100 G
b1000101 F
0:
1<
b1000101 .
b1000101 7
b1 5
1-
#1100000
0-
#1105000
b11 H
b110110 ;
b110101 G
b1001100 F
0:
1<
b1001100 .
b1001100 7
b10 5
1-
#1110000
0-
#1115000
b100 H
b110111 ;
b110110 G
1:
0<
b1000001 .
b1000001 7
b11 5
1-
#1120000
0-
#1125000
b101 H
b111000 ;
b110111 G
1!
1J
b1001111 F
1-
#1130000
0-
#1135000
0!
0J
b110011 ;
b110010 G
b0 H
0:
13
b1 4
1-
#1140000
0-
#1145000
1<
b1 H
b110100 ;
b110011 G
b1001000 F
0:
b1001000 .
b1001000 7
b0 5
03
1-
#1150000
0-
#1155000
b10 H
b110101 ;
b110100 G
b1000101 F
0:
1<
b1000101 .
b1000101 7
b1 5
1-
#1160000
0-
#1165000
b11 H
b110110 ;
b110101 G
b1001100 F
0:
1<
b1001100 .
b1001100 7
b10 5
1-
#1170000
0-
#1175000
b100 H
b110111 ;
b110110 G
1:
0<
b1000010 .
b1000010 7
b11 5
1-
#1180000
0-
#1185000
b101 H
b111000 ;
b110111 G
1!
1J
b1001111 F
1-
#1190000
0-
#1195000
0!
0J
b110011 ;
b110010 G
b0 H
0:
13
b10 4
1-
#1200000
0-
#1205000
1<
b1 H
b110100 ;
b110011 G
b1001000 F
0:
b1001000 .
b1001000 7
b0 5
03
1-
#1210000
0-
#1215000
b10 H
b110101 ;
b110100 G
b1000101 F
0:
1<
b1000101 .
b1000101 7
b1 5
1-
#1220000
0-
#1225000
b11 H
b110110 ;
b110101 G
b1001100 F
0:
1<
b1001100 .
b1001100 7
b10 5
1-
#1230000
0-
#1235000
b100 H
b110111 ;
b110110 G
1:
0<
b1000011 .
b1000011 7
b11 5
1-
#1240000
0-
#1245000
b101 H
b111000 ;
b110111 G
1!
1J
b1001111 F
1-
#1250000
0-
#1255000
0!
0J
b110011 ;
b110010 G
b0 H
0:
13
b11 4
1-
#1260000
0-
#1265000
1<
b1 H
b110100 ;
b110011 G
b1001000 F
0:
b1001000 .
b1001000 7
b0 5
03
1-
#1270000
0-
#1275000
b10 H
b110101 ;
b110100 G
b1000101 F
0:
1<
b1000101 .
b1000101 7
b1 5
1-
#1280000
0-
#1285000
b11 H
b110110 ;
b110101 G
b1001100 F
0:
1<
b1001100 .
b1001100 7
b10 5
1-
#1290000
0-
#1295000
b100 H
b110111 ;
b110110 G
1:
0<
b1000100 .
b1000100 7
b11 5
1-
#1300000
0-
#1305000
b101 H
b111000 ;
b110111 G
1!
1J
b1001111 F
1-
#1310000
0-
#1315000
0!
0J
b110011 ;
b110010 G
b0 H
0:
13
b100 4
1-
#1320000
0-
#1325000
1<
b1 H
b110100 ;
b110011 G
b1001000 F
0:
b1001000 .
b1001000 7
b0 5
03
1-
#1330000
0-
#1335000
b10 H
b110101 ;
b110100 G
b1000101 F
0:
1<
b1000101 .
b1000101 7
b1 5
1-
#1340000
0-
#1345000
b11 H
b110110 ;
b110101 G
b1001100 F
0:
1<
b1001100 .
b1001100 7
b10 5
1-
#1350000
0-
#1355000
b100 H
b110111 ;
b110110 G
1:
0<
b1000101 .
b1000101 7
b11 5
1-
#1360000
0-
#1365000
b101 H
b111000 ;
b110111 G
1!
1J
b1001111 F
1-
#1370000
0-
#1375000
0!
0J
b110011 ;
b110010 G
b0 H
0:
13
b101 4
1-
#1380000
0-
#1385000
1<
b1 H
b110100 ;
b110011 G
b1001000 F
0:
b1001000 .
b1001000 7
b0 5
03
1-
#1390000
0-
#1395000
b10 H
b110101 ;
b110100 G
b1000101 F
0:
1<
b1000101 .
b1000101 7
b1 5
1-
#1400000
0-
#1405000
b11 H
b110110 ;
b110101 G
b1001100 F
0:
1<
b1001100 .
b1001100 7
b10 5
1-
#1410000
0-
#1415000
b100 H
b110111 ;
b110110 G
1:
0<
b1000110 .
b1000110 7
b11 5
1-
#1420000
0-
#1425000
b101 H
b111000 ;
b110111 G
1!
1J
b1001111 F
1-
#1430000
0-
#1435000
0!
0J
b110011 ;
b110010 G
b0 H
0:
13
b110 4
1-
#1440000
0-
#1445000
1<
b1 H
b110100 ;
b110011 G
b1001000 F
0:
b1001000 .
b1001000 7
b0 5
03
1-
#1450000
0-
#1455000
b10 H
b110101 ;
b110100 G
b1000101 F
0:
1<
b1000101 .
b1000101 7
b1 5
1-
#1460000
0-
#1465000
b11 H
b110110 ;
b110101 G
b1001100 F
0:
1<
b1001100 .
b1001100 7
b10 5
1-
#1470000
0-
#1475000
b100 H
b110111 ;
b110110 G
1:
0<
b1000111 .
b1000111 7
b11 5
1-
#1480000
0-
#1485000
b101 H
b111000 ;
b110111 G
1!
1J
b1001111 F
1-
#1490000
0-
#1495000
0!
0J
b110011 ;
b110010 G
b0 H
0:
13
b111 4
1-
#1500000
0-
#1505000
1<
b1 H
b110100 ;
b110011 G
b1001000 F
0:
b1001000 .
b1001000 7
b0 5
03
1-
#1510000
0-
#1515000
b10 H
b110101 ;
b110100 G
b1000101 F
0:
1<
b1000101 .
b1000101 7
b1 5
1-
#1520000
0-
#1525000
b11 H
b110110 ;
b110101 G
b1001100 F
0:
1<
b1001100 .
b1001100 7
b10 5
1-
#1530000
0-
#1535000
b100 H
b110111 ;
b110110 G
1:
0<
b1001000 .
b1001000 7
b11 5
1-
#1540000
0-
#1545000
b101 H
b111000 ;
b110111 G
1!
1J
b1001111 F
1-
#1550000
0-
#1555000
0!
0J
b110011 ;
b110010 G
b0 H
0:
13
b1000 4
1-
#1560000
0-
#1565000
1<
b1 H
b110100 ;
b110011 G
b1001000 F
0:
b0 5
03
1-
#1570000
0-
#1575000
b10 H
b110101 ;
b110100 G
b1000101 F
0:
1<
b1000101 .
b1000101 7
b1 5
1-
#1580000
0-
#1585000
b11 H
b110110 ;
b110101 G
b1001100 F
0:
1<
b1001100 .
b1001100 7
b10 5
1-
#1590000
0-
#1595000
b100 H
b110111 ;
b110110 G
1:
0<
b1001001 .
b1001001 7
b11 5
1-
#1600000
0-
#1605000
b101 H
b111000 ;
b110111 G
1!
1J
b1001111 F
1-
#1610000
0-
#1615000
0!
0J
b110011 ;
b110010 G
b0 H
0:
13
b1001 4
1-
#1620000
0-
#1625000
1<
b1 H
b110100 ;
b110011 G
b1001000 F
0:
b1001000 .
b1001000 7
b0 5
03
1-
#1630000
0-
#1635000
b10 H
b110101 ;
b110100 G
b1000101 F
0:
1<
b1000101 .
b1000101 7
b1 5
1-
#1640000
0-
#1645000
b11 H
b110110 ;
b110101 G
b1001100 F
0:
1<
b1001100 .
b1001100 7
b10 5
1-
#1650000
0-
#1655000
b100 H
b110111 ;
b110110 G
1:
0<
b1001010 .
b1001010 7
b11 5
1-
#1660000
0-
#1665000
b101 H
b111000 ;
b110111 G
1!
1J
b1001111 F
1-
#1670000
0-
#1675000
0!
0J
b110011 ;
b110010 G
b0 H
0:
13
b1010 4
1-
#1680000
0-
#1685000
1<
b1 H
b110100 ;
b110011 G
b1001000 F
0:
b1001000 .
b1001000 7
b0 5
03
1-
#1690000
0-
#1695000
b10 H
b110101 ;
b110100 G
b1000101 F
0:
1<
b1000101 .
b1000101 7
b1 5
1-
#1700000
0-
#1705000
b11 H
b110110 ;
b110101 G
b1001100 F
0:
1<
b1001100 .
b1001100 7
b10 5
1-
#1710000
0-
#1715000
b100 H
b110111 ;
b110110 G
1:
0<
b1001011 .
b1001011 7
b11 5
1-
#1720000
0-
#1725000
b101 H
b111000 ;
b110111 G
1!
1J
b1001111 F
1-
#1730000
0-
#1735000
0!
0J
b110011 ;
b110010 G
b0 H
0:
13
b1011 4
1-
#1740000
0-
#1745000
1<
b1 H
b110100 ;
b110011 G
b1001000 F
0:
b1001000 .
b1001000 7
b0 5
03
1-
#1750000
0-
#1755000
b10 H
b110101 ;
b110100 G
b1000101 F
0:
1<
b1000101 .
b1000101 7
b1 5
1-
#1760000
0-
#1765000
b11 H
b110110 ;
b110101 G
b1001100 F
0:
1<
b1001100 .
b1001100 7
b10 5
1-
#1770000
0-
#1775000
b100 H
b110111 ;
b110110 G
b11 5
1-
#1780000
0-
#1785000
1:
0<
b101 H
b111000 ;
b110111 G
b1001111 F
1-
#1790000
0-
#1795000
b110011 ;
b110010 G
b0 H
0:
13
b100 6
b0 4
1-
#1800000
0-
#1805000
1<
b1 H
b110100 ;
b110011 G
b1001000 F
0:
b1001000 .
b1001000 7
b0 5
03
1-
#1810000
0-
#1815000
b10 H
b110101 ;
b110100 G
b1000101 F
0:
1<
b1000101 .
b1000101 7
b1 5
1-
#1820000
0-
#1825000
b11 H
b110110 ;
b110101 G
b1001100 F
0:
1<
b1001100 .
b1001100 7
b10 5
1-
#1830000
0-
#1835000
b100 H
b110111 ;
b110110 G
b11 5
1-
#1840000
0-
#1845000
b101 H
b111000 ;
b110111 G
b1001111 F
1:
0<
b1000001 .
b1000001 7
b100 5
1-
#1850000
0-
#1855000
b110 H
b111001 ;
b111000 G
1!
1J
b1010111 F
1-
#1860000
0-
#1865000
0!
0J
b110011 ;
b110010 G
b0 H
0:
13
b1 4
1-
#1870000
0-
#1875000
1<
b1 H
b110100 ;
b110011 G
b1001000 F
0:
b1001000 .
b1001000 7
b0 5
03
1-
#1880000
0-
#1885000
b10 H
b110101 ;
b110100 G
b1000101 F
0:
1<
b1000101 .
b1000101 7
b1 5
1-
#1890000
0-
#1895000
b11 H
b110110 ;
b110101 G
b1001100 F
0:
1<
b1001100 .
b1001100 7
b10 5
1-
#1900000
0-
#1905000
b100 H
b110111 ;
b110110 G
b11 5
1-
#1910000
0-
#1915000
b101 H
b111000 ;
b110111 G
b1001111 F
1:
0<
b1000010 .
b1000010 7
b100 5
1-
#1920000
0-
#1925000
b110 H
b111001 ;
b111000 G
1!
1J
b1010111 F
1-
#1930000
0-
#1935000
0!
0J
b110011 ;
b110010 G
b0 H
0:
13
b10 4
1-
#1940000
0-
#1945000
1<
b1 H
b110100 ;
b110011 G
b1001000 F
0:
b1001000 .
b1001000 7
b0 5
03
1-
#1950000
0-
#1955000
b10 H
b110101 ;
b110100 G
b1000101 F
0:
1<
b1000101 .
b1000101 7
b1 5
1-
#1960000
0-
#1965000
b11 H
b110110 ;
b110101 G
b1001100 F
0:
1<
b1001100 .
b1001100 7
b10 5
1-
#1970000
0-
#1975000
b100 H
b110111 ;
b110110 G
b11 5
1-
#1980000
0-
#1985000
b101 H
b111000 ;
b110111 G
b1001111 F
1:
0<
b1000011 .
b1000011 7
b100 5
1-
#1990000
0-
#1995000
b110 H
b111001 ;
b111000 G
1!
1J
b1010111 F
1-
#2000000
0-
#2005000
0!
0J
b110011 ;
b110010 G
b0 H
0:
13
b11 4
1-
#2010000
0-
#2015000
1<
b1 H
b110100 ;
b110011 G
b1001000 F
0:
b1001000 .
b1001000 7
b0 5
03
1-
#2020000
0-
#2025000
b10 H
b110101 ;
b110100 G
b1000101 F
0:
1<
b1000101 .
b1000101 7
b1 5
1-
#2030000
0-
#2035000
b11 H
b110110 ;
b110101 G
b1001100 F
0:
1<
b1001100 .
b1001100 7
b10 5
1-
#2040000
0-
#2045000
b100 H
b110111 ;
b110110 G
b11 5
1-
#2050000
0-
#2055000
b101 H
b111000 ;
b110111 G
b1001111 F
1:
0<
b1000100 .
b1000100 7
b100 5
1-
#2060000
0-
#2065000
b110 H
b111001 ;
b111000 G
1!
1J
b1010111 F
1-
#2070000
0-
#2075000
0!
0J
b110011 ;
b110010 G
b0 H
0:
13
b100 4
1-
#2080000
0-
#2085000
1<
b1 H
b110100 ;
b110011 G
b1001000 F
0:
b1001000 .
b1001000 7
b0 5
03
1-
#2090000
0-
#2095000
b10 H
b110101 ;
b110100 G
b1000101 F
0:
1<
b1000101 .
b1000101 7
b1 5
1-
#2100000
0-
#2105000
b11 H
b110110 ;
b110101 G
b1001100 F
0:
1<
b1001100 .
b1001100 7
b10 5
1-
#2110000
0-
#2115000
b100 H
b110111 ;
b110110 G
b11 5
1-
#2120000
0-
#2125000
b101 H
b111000 ;
b110111 G
b1001111 F
1:
0<
b1000101 .
b1000101 7
b100 5
1-
#2130000
0-
#2135000
b110 H
b111001 ;
b111000 G
1!
1J
b1010111 F
1-
#2140000
0-
#2145000
0!
0J
b110011 ;
b110010 G
b0 H
0:
13
b101 4
1-
#2150000
0-
#2155000
1<
b1 H
b110100 ;
b110011 G
b1001000 F
0:
b1001000 .
b1001000 7
b0 5
03
1-
#2160000
0-
#2165000
b10 H
b110101 ;
b110100 G
b1000101 F
0:
1<
b1000101 .
b1000101 7
b1 5
1-
#2170000
0-
#2175000
b11 H
b110110 ;
b110101 G
b1001100 F
0:
1<
b1001100 .
b1001100 7
b10 5
1-
#2180000
0-
#2185000
b100 H
b110111 ;
b110110 G
b11 5
1-
#2190000
0-
#2195000
b101 H
b111000 ;
b110111 G
b1001111 F
1:
0<
b1000110 .
b1000110 7
b100 5
1-
#2200000
0-
#2205000
b110 H
b111001 ;
b111000 G
1!
1J
b1010111 F
1-
#2210000
0-
#2215000
0!
0J
b110011 ;
b110010 G
b0 H
0:
13
b110 4
1-
#2220000
0-
#2225000
1<
b1 H
b110100 ;
b110011 G
b1001000 F
0:
b1001000 .
b1001000 7
b0 5
03
1-
#2230000
0-
#2235000
b10 H
b110101 ;
b110100 G
b1000101 F
0:
1<
b1000101 .
b1000101 7
b1 5
1-
#2240000
0-
#2245000
b11 H
b110110 ;
b110101 G
b1001100 F
0:
1<
b1001100 .
b1001100 7
b10 5
1-
#2250000
0-
#2255000
b100 H
b110111 ;
b110110 G
b11 5
1-
#2260000
0-
#2265000
b101 H
b111000 ;
b110111 G
b1001111 F
1:
0<
b1000111 .
b1000111 7
b100 5
1-
#2270000
0-
#2275000
b110 H
b111001 ;
b111000 G
1!
1J
b1010111 F
1-
#2280000
0-
#2285000
0!
0J
b110011 ;
b110010 G
b0 H
0:
13
b111 4
1-
#2290000
0-
#2295000
1<
b1 H
b110100 ;
b110011 G
b1001000 F
0:
b1001000 .
b1001000 7
b0 5
03
1-
#2300000
0-
#2305000
b10 H
b110101 ;
b110100 G
b1000101 F
0:
1<
b1000101 .
b1000101 7
b1 5
1-
#2310000
0-
#2315000
b11 H
b110110 ;
b110101 G
b1001100 F
0:
1<
b1001100 .
b1001100 7
b10 5
1-
#2320000
0-
#2325000
b100 H
b110111 ;
b110110 G
b11 5
1-
#2330000
0-
#2335000
b101 H
b111000 ;
b110111 G
b1001111 F
1:
0<
b1001000 .
b1001000 7
b100 5
1-
#2340000
0-
#2345000
b110 H
b111001 ;
b111000 G
1!
1J
b1010111 F
1-
#2350000
0-
#2355000
0!
0J
b110011 ;
b110010 G
b0 H
0:
13
b1000 4
1-
#2360000
0-
#2365000
1<
b1 H
b110100 ;
b110011 G
b1001000 F
0:
b0 5
03
1-
#2370000
0-
#2375000
b10 H
b110101 ;
b110100 G
b1000101 F
0:
1<
b1000101 .
b1000101 7
b1 5
1-
#2380000
0-
#2385000
b11 H
b110110 ;
b110101 G
b1001100 F
0:
1<
b1001100 .
b1001100 7
b10 5
1-
#2390000
0-
#2395000
b100 H
b110111 ;
b110110 G
b11 5
1-
#2400000
0-
#2405000
b101 H
b111000 ;
b110111 G
b1001111 F
1:
0<
b1001001 .
b1001001 7
b100 5
1-
#2410000
0-
